Visualising Networks in ASOIAF
…
Let us first import the packages that would be used for this analysis. Since there are certain algorithm that involve random initialisations, we set a seed to make the analysis replicable.

Next, we read in the asoiaf files into two dataframe one containing all the nodes/vertices of the graph and the other the edges/connections.

node_files <- list.files(path = "data/", pattern = "nodes")
edge_files <- list.files(path = "data/", pattern = "edges")
node_df = do.call(rbind, lapply(paste0("data/",node_files), function(x) read_csv(x)))
edge_df = do.call(rbind, lapply(paste0("data/",edge_files), function(x) read_csv(x)))

Let’s take a look at how the datasets look like:

node_df

## # A tibble: 1,340 x 2
##    Id                              Label                          
##    <chr>                           <chr>                          
##  1 Addam-Marbrand                  Addam Marbrand                 
##  2 Aegon-I-Targaryen               Aegon I Targaryen              
##  3 Aemon-Targaryen-(Maester-Aemon) Aemon Targaryen (Maester Aemon)
##  4 Aerys-II-Targaryen              Aerys II Targaryen             
##  5 Aggo                            Aggo                           
##  6 Albett                          Albett                         
##  7 Alliser-Thorne                  Alliser Thorne                 
##  8 Alyn                            Alyn                           
##  9 Arthur-Dayne                    Arthur Dayne                   
## 10 Arya-Stark                      Arya Stark                     
## # ... with 1,330 more rows

edge_df

## # A tibble: 3,909 x 5
##    Source                         Target            Type      weight  book
##    <chr>                          <chr>             <chr>      <int> <int>
##  1 Addam-Marbrand                 Jaime-Lannister   Undirect~      3     1
##  2 Addam-Marbrand                 Tywin-Lannister   Undirect~      6     1
##  3 Aegon-I-Targaryen              Daenerys-Targary~ Undirect~      5     1
##  4 Aegon-I-Targaryen              Eddard-Stark      Undirect~      4     1
##  5 Aemon-Targaryen-(Maester-Aemo~ Alliser-Thorne    Undirect~      4     1
##  6 Aemon-Targaryen-(Maester-Aemo~ Bowen-Marsh       Undirect~      4     1
##  7 Aemon-Targaryen-(Maester-Aemo~ Chett             Undirect~      9     1
##  8 Aemon-Targaryen-(Maester-Aemo~ Clydas            Undirect~      5     1
##  9 Aemon-Targaryen-(Maester-Aemo~ Jeor-Mormont      Undirect~     13     1
## 10 Aemon-Targaryen-(Maester-Aemo~ Jon-Snow          Undirect~     34     1
## # ... with 3,899 more rows
…
Typical of network graphs, the plot shows a power law like distribution, with most character pairs connected by a few joint mentions and a few central characters being mentioned repeatedly in the same context. I truncated the x-axis to remove certain outliers, but if you are keen on finding out which characters were most commonly mentioned next to each other…

book1 %>% arrange(desc(weight))

## # A tibble: 684 x 4
##    from               to               weight  book
##    <chr>              <chr>             <int> <int>
##  1 Eddard-Stark       Robert-Baratheon    291     1
##  2 Bran-Stark         Robb-Stark          112     1
##  3 Arya-Stark         Sansa-Stark         104     1
##  4 Daenerys-Targaryen Drogo               101     1
##  5 Joffrey-Baratheon  Sansa-Stark          87     1
##  6 Eddard-Stark       Petyr-Baelish        81     1
##  7 Jeor-Mormont       Jon-Snow             81     1
##  8 Jon-Snow           Samwell-Tarly        81     1
##  9 Daenerys-Targaryen Jorah-Mormont        75     1
## 10 Cersei-Lannister   Robert-Baratheon     72     1
## # ... with 674 more rows
…
